{
	"ID": "BA6FBF824E833BD8D086B78E88E9A3F5",
	"displayName": "DocumentationProjectPlugin",
	"fileName": "DocumentationProjectPlugin.json",
	"description": "Enter the description",
	"files": [
		{
			"ID": "AD7F78214289A0950AADDA85EA1F232E",
			"displayName": "Public",
			"fileName": "Folder",
			"description": "Enter the description",
			"files": [
				{
					"ID": "D8F8B99142219F463D4995A6B427A66B",
					"displayName": "DragDrop",
					"fileName": "Folder",
					"description": "Enter the description",
					"files": [
						{
							"ID": "84AFC8FB4C584615BA468088EF47C2A7",
							"displayName": "DocDragDropOperation",
							"fileName": "DocDragDropOperation.h",
							"description": "A class for moving data and displaying a moved object.",
							"files": []
						}
					]
				},
				{
					"ID": "74BD90AE4F5D73B8A5F7B584B15286AC",
					"displayName": "Settings",
					"fileName": "Folder",
					"description": "Enter the description",
					"files": [
						{
							"ID": "AF84CBAD4FCBD7E8FA796F992E38290A",
							"displayName": "DocumentationProjectSettings",
							"fileName": "DocumentationProjectSettings.h",
							"description": "Class with project settings.\r\n\r\nSettings -> Project Settings -> Plugins -> Documentation Project",
							"files": []
						}
					]
				},
				{
					"ID": "7B94385049EB95AD6D5F5788FFDA5CBA",
					"displayName": "Types",
					"fileName": "Folder",
					"description": "Enter the description",
					"files": [
						{
							"ID": "40F2976D4B1206AB5D2E8AA53D1AC955",
							"displayName": "DocTypes",
							"fileName": "DocTypes.h",
							"description": "Contains data structures for json files and a class with data for the element tree.",
							"files": []
						}
					]
				},
				{
					"ID": "E7FB79AD47DD9A4C95F39DBC103E8A6B",
					"displayName": "Utils",
					"fileName": "Folder",
					"description": "Enter the description",
					"files": [
						{
							"ID": "3563160F4D6DAD70168D7DB2EB113A30",
							"displayName": "ScanFiles",
							"fileName": "ScanFiles.h",
							"description": "The class contains functions for scanning directories, searching and saving files.",
							"files": []
						}
					]
				},
				{
					"ID": "AB1BDFC94ACBFA8B336006A12EA138BB",
					"displayName": "Widgets",
					"fileName": "Folder",
					"description": "Enter the description",
					"files": [
						{
							"ID": "1D580F4F40AA57994147ECA99332BAD6",
							"displayName": "SConfirmDialog",
							"fileName": "SConfirmDialog.h",
							"description": "A dialog window to confirm the action, in our case, deletion.",
							"files": []
						},
						{
							"ID": "9CCA4F6146103B115F41589A415360A9",
							"displayName": "SDocBrowser",
							"fileName": "SDocBrowser.h",
							"description": "Plugin main window widget",
							"files": []
						},
						{
							"ID": "640AE7844062B9ABD67E81AF5E3060BD",
							"displayName": "SDocCategory",
							"fileName": "SDocCategory.h",
							"description": "Tree item widget.\r\nCan be renamed.\r\nIf it is the root, then a child widget can be created into it.",
							"files": []
						},
						{
							"ID": "479FF5C84982587B74E5BC98F5114E8B",
							"displayName": "SDocTree",
							"fileName": "SDocTree.h",
							"description": "A tree that contains a list of SDocCategory widgets.\r\n\r\nIt has a context menu with the following actions:\r\n1) Create a new category\r\n2) Create a subcategory\r\n3) Edit\r\n4) Rename\r\n5) Delete",
							"files": []
						},
						{
							"ID": "FEB18FE1429BA1A18D245D9BA70F4E6B",
							"displayName": "SDocView",
							"fileName": "SDocView.h",
							"description": "This widget shows the description.\r\nIt also has a category/subcategory editing window.",
							"files": []
						},
						{
							"ID": "56EB6F914AD99E62A01DC1885E160874",
							"displayName": "SEditDialog",
							"fileName": "SEditDialog.h",
							"description": "Dialog window for editing the document with confirmation.",
							"files": []
						}
					]
				},
				{
					"ID": "9EC5A16F4F34187C1BA5C198E3C1AAA3",
					"displayName": "DocumentationProject",
					"fileName": "DocumentationProject.h",
					"description": "The plugin module is responsible for initializing the plugin.",
					"files": []
				},
				{
					"ID": "94E728CF4644816980892A9412B94D34",
					"displayName": "DocumentationProjectCommands",
					"fileName": "DocumentationProjectCommands.h",
					"description": "The class containing the plugin commands.",
					"files": []
				},
				{
					"ID": "0AF7CF1D49ED2FB591ADC5B9BA28E76E",
					"displayName": "DocumentationProjectStyle",
					"fileName": "DocumentationProjectStyle.h",
					"description": "The class containing the plugin styles.",
					"files": []
				}
			]
		}
	]
}